^C:\USERS\SEBASTIAN\DOCUMENTS\GRAFIKA-SPRAWOZDANIE-11\SPRAWOZDANIE7\SPRAWOZDANIE7\STDAFX.CPP
/c /I"C:\USERS\SEBASTIAN\DOCUMENTS\GRAFIKA-SPRAWOZDANIE-11\SPRAWOZDANIE7\PACKAGES\NUPENGL.CORE.0.1.0.1\BUILD\NATIVE\../..//BUILD/NATIVE/INCLUDE/" /ZI /nologo /W3 /WX- /diagnostics:classic /Od /Oy- /D WIN32 /D _DEBUG /D _CONSOLE /D _UNICODE /D UNICODE /Gm /EHsc /RTC1 /MDd /GS /fp:precise /Zc:wchar_t /Zc:forScope /Zc:inline /Yc"stdafx.h" /Fp"DEBUG\SPRAWOZDANIE11.PCH" /Fo"DEBUG\\" /Fd"DEBUG\VC141.PDB" /Gd /TP /analyze- C:\USERS\SEBASTIAN\DOCUMENTS\GRAFIKA-SPRAWOZDANIE-11\SPRAWOZDANIE7\SPRAWOZDANIE7\STDAFX.CPP
^C:\USERS\SEBASTIAN\DOCUMENTS\GRAFIKA-SPRAWOZDANIE-11\SPRAWOZDANIE7\SPRAWOZDANIE7\SPRAWOZDANIE11.CPP
/c /I"C:\USERS\SEBASTIAN\DOCUMENTS\GRAFIKA-SPRAWOZDANIE-11\SPRAWOZDANIE7\PACKAGES\NUPENGL.CORE.0.1.0.1\BUILD\NATIVE\../..//BUILD/NATIVE/INCLUDE/" /ZI /nologo /W3 /WX- /diagnostics:classic /Od /Oy- /D WIN32 /D _DEBUG /D _CONSOLE /D _UNICODE /D UNICODE /Gm /EHsc /RTC1 /MDd /GS /fp:precise /Zc:wchar_t /Zc:forScope /Zc:inline /Yu"stdafx.h" /Fp"DEBUG\SPRAWOZDANIE11.PCH" /Fo"DEBUG\\" /Fd"DEBUG\VC141.PDB" /Gd /TP /analyze- C:\USERS\SEBASTIAN\DOCUMENTS\GRAFIKA-SPRAWOZDANIE-11\SPRAWOZDANIE7\SPRAWOZDANIE7\SPRAWOZDANIE11.CPP
^C:\USERS\SEBASTIAN\DOCUMENTS\GRAFIKA-SPRAWOZDANIE-11\SPRAWOZDANIE7\SPRAWOZDANIE7\VECTORMATH.CPP
/c /I"C:\USERS\SEBASTIAN\DOCUMENTS\GRAFIKA-SPRAWOZDANIE-11\SPRAWOZDANIE7\PACKAGES\NUPENGL.CORE.0.1.0.1\BUILD\NATIVE\../..//BUILD/NATIVE/INCLUDE/" /ZI /nologo /W3 /WX- /diagnostics:classic /Od /Oy- /D WIN32 /D _DEBUG /D _CONSOLE /D _UNICODE /D UNICODE /Gm /EHsc /RTC1 /MDd /GS /fp:precise /Zc:wchar_t /Zc:forScope /Zc:inline /Yu"stdafx.h" /Fp"DEBUG\SPRAWOZDANIE11.PCH" /Fo"DEBUG\\" /Fd"DEBUG\VC141.PDB" /Gd /TP /analyze- C:\USERS\SEBASTIAN\DOCUMENTS\GRAFIKA-SPRAWOZDANIE-11\SPRAWOZDANIE7\SPRAWOZDANIE7\VECTORMATH.CPP
