^C:\USERS\BŁAŻEJ\DOCUMENTS\VISUAL STUDIO 2013\PROJECTS\SPRAWOZDANIE4\PROGRAM2\STDAFX.CPP
/c /I"C:\Users\Błażej\Documents\Visual Studio 2013\Projects\Sprawozdanie4\packages\nupengl.core.0.1.0.1\build\native\../..//build/native/include/" /ZI /nologo /W3 /WX- /sdl /Od /Oy- /D WIN32 /D _DEBUG /D _CONSOLE /D _LIB /D _CRT_SECURE_NO_WARNINGS /D _UNICODE /D UNICODE /Gm /EHsc /RTC1 /MDd /GS /fp:precise /Zc:wchar_t /Zc:forScope /Yc"stdafx.h" /Fp"DEBUG\PROGRAM2.PCH" /Fo"DEBUG\\" /Fd"DEBUG\VC120.PDB" /Gd /TP /analyze- C:\USERS\BŁAŻEJ\DOCUMENTS\VISUAL STUDIO 2013\PROJECTS\SPRAWOZDANIE4\PROGRAM2\STDAFX.CPP
^C:\USERS\BŁAŻEJ\DOCUMENTS\VISUAL STUDIO 2013\PROJECTS\SPRAWOZDANIE4\PROGRAM2\PROGRAM2.CPP
/c /I"C:\Users\Błażej\Documents\Visual Studio 2013\Projects\Sprawozdanie4\packages\nupengl.core.0.1.0.1\build\native\../..//build/native/include/" /ZI /nologo /W3 /WX- /sdl /Od /Oy- /D WIN32 /D _DEBUG /D _CONSOLE /D _LIB /D _CRT_SECURE_NO_WARNINGS /D _UNICODE /D UNICODE /Gm /EHsc /RTC1 /MDd /GS /fp:precise /Zc:wchar_t /Zc:forScope /Yu"stdafx.h" /Fp"DEBUG\PROGRAM2.PCH" /Fo"DEBUG\\" /Fd"DEBUG\VC120.PDB" /Gd /TP /analyze- C:\USERS\BŁAŻEJ\DOCUMENTS\VISUAL STUDIO 2013\PROJECTS\SPRAWOZDANIE4\PROGRAM2\PROGRAM2.CPP
^C:\USERS\BŁAŻEJ\DOCUMENTS\VISUAL STUDIO 2013\PROJECTS\SPRAWOZDANIE4\PROGRAM2\TARGA.CPP
/c /I"C:\Users\Błażej\Documents\Visual Studio 2013\Projects\Sprawozdanie4\packages\nupengl.core.0.1.0.1\build\native\../..//build/native/include/" /ZI /nologo /W3 /WX- /sdl /Od /Oy- /D WIN32 /D _DEBUG /D _CONSOLE /D _LIB /D _CRT_SECURE_NO_WARNINGS /D _UNICODE /D UNICODE /Gm /EHsc /RTC1 /MDd /GS /fp:precise /Zc:wchar_t /Zc:forScope /Yu"stdafx.h" /Fp"DEBUG\PROGRAM2.PCH" /Fo"DEBUG\\" /Fd"DEBUG\VC120.PDB" /Gd /TP /analyze- C:\USERS\BŁAŻEJ\DOCUMENTS\VISUAL STUDIO 2013\PROJECTS\SPRAWOZDANIE4\PROGRAM2\TARGA.CPP
^C:\USERS\BŁAŻEJ\DOCUMENTS\PROJEKTY\SPRAWOZDANIE4\PROGRAM2\STDAFX.CPP
/c /I"C:\USERS\BŁAŻEJ\DOCUMENTS\PROJEKTY\SPRAWOZDANIE4\PACKAGES\NUPENGL.CORE.0.1.0.1\BUILD\NATIVE\../..//BUILD/NATIVE/INCLUDE/" /ZI /nologo /W3 /WX- /sdl /Od /Oy- /D WIN32 /D _DEBUG /D _CONSOLE /D _LIB /D _CRT_SECURE_NO_WARNINGS /D _UNICODE /D UNICODE /Gm /EHsc /RTC1 /MDd /GS /fp:precise /Zc:wchar_t /Zc:forScope /Zc:inline /Yc"stdafx.h" /Fp"DEBUG\PROGRAM2.PCH" /Fo"DEBUG\\" /Fd"DEBUG\VC140.PDB" /Gd /TP /analyze- C:\USERS\BŁAŻEJ\DOCUMENTS\PROJEKTY\SPRAWOZDANIE4\PROGRAM2\STDAFX.CPP
^C:\USERS\BŁAŻEJ\DOCUMENTS\PROJEKTY\SPRAWOZDANIE4\PROGRAM2\PROGRAM2.CPP
/c /I"C:\USERS\BŁAŻEJ\DOCUMENTS\PROJEKTY\SPRAWOZDANIE4\PACKAGES\NUPENGL.CORE.0.1.0.1\BUILD\NATIVE\../..//BUILD/NATIVE/INCLUDE/" /ZI /nologo /W3 /WX- /sdl /Od /Oy- /D WIN32 /D _DEBUG /D _CONSOLE /D _LIB /D _CRT_SECURE_NO_WARNINGS /D _UNICODE /D UNICODE /Gm /EHsc /RTC1 /MDd /GS /fp:precise /Zc:wchar_t /Zc:forScope /Zc:inline /Yu"stdafx.h" /Fp"DEBUG\PROGRAM2.PCH" /Fo"DEBUG\\" /Fd"DEBUG\VC140.PDB" /Gd /TP /analyze- C:\USERS\BŁAŻEJ\DOCUMENTS\PROJEKTY\SPRAWOZDANIE4\PROGRAM2\PROGRAM2.CPP
^C:\USERS\BŁAŻEJ\DOCUMENTS\PROJEKTY\SPRAWOZDANIE4\PROGRAM2\TARGA.CPP
/c /I"C:\USERS\BŁAŻEJ\DOCUMENTS\PROJEKTY\SPRAWOZDANIE4\PACKAGES\NUPENGL.CORE.0.1.0.1\BUILD\NATIVE\../..//BUILD/NATIVE/INCLUDE/" /ZI /nologo /W3 /WX- /sdl /Od /Oy- /D WIN32 /D _DEBUG /D _CONSOLE /D _LIB /D _CRT_SECURE_NO_WARNINGS /D _UNICODE /D UNICODE /Gm /EHsc /RTC1 /MDd /GS /fp:precise /Zc:wchar_t /Zc:forScope /Zc:inline /Yu"stdafx.h" /Fp"DEBUG\PROGRAM2.PCH" /Fo"DEBUG\\" /Fd"DEBUG\VC140.PDB" /Gd /TP /analyze- C:\USERS\BŁAŻEJ\DOCUMENTS\PROJEKTY\SPRAWOZDANIE4\PROGRAM2\TARGA.CPP
