^C:\USERS\BŁAŻEJ\DOCUMENTS\VISUAL STUDIO 2013\PROJECTS\CONSOLEAPPLICATION51\ZAD4\DEBUG\STDAFX.OBJ|C:\USERS\BŁAŻEJ\DOCUMENTS\VISUAL STUDIO 2013\PROJECTS\CONSOLEAPPLICATION51\ZAD4\DEBUG\ZAD4.OBJ
C:\USERS\BłAżEJ\DOCUMENTS\VISUAL STUDIO 2013\PROJECTS\CONSOLEAPPLICATION51\DEBUG\ZAD4.ILK
C:\USERS\BłAżEJ\DOCUMENTS\VISUAL STUDIO 2013\PROJECTS\CONSOLEAPPLICATION51\DEBUG\ZAD4.EXE
C:\USERS\BŁAŻEJ\DOCUMENTS\VISUAL STUDIO 2013\PROJECTS\CONSOLEAPPLICATION51\DEBUG\ZAD4.PDB
^C:\USERS\BŁAŻEJ\DOCUMENTS\VISUAL STUDIO 2013\PROJECTS\SPRAWOZDANIE1\ZAD4\DEBUG\STDAFX.OBJ|C:\USERS\BŁAŻEJ\DOCUMENTS\VISUAL STUDIO 2013\PROJECTS\SPRAWOZDANIE1\ZAD4\DEBUG\ZAD4.OBJ
C:\USERS\BłAżEJ\DOCUMENTS\VISUAL STUDIO 2013\PROJECTS\SPRAWOZDANIE1\DEBUG\ZAD4.ILK
C:\USERS\BłAżEJ\DOCUMENTS\VISUAL STUDIO 2013\PROJECTS\SPRAWOZDANIE1\DEBUG\ZAD4.EXE
C:\USERS\BŁAŻEJ\DOCUMENTS\VISUAL STUDIO 2013\PROJECTS\SPRAWOZDANIE1\DEBUG\ZAD4.PDB
