^C:\GRAFIKA\SPR7\GRAFIKA-SPRAWOZDANIE-11\SPRAWOZDANIE7\SPRAWOZDANIE7\STDAFX.CPP
C:\GRAFIKA\SPR7\GRAFIKA-SPRAWOZDANIE-11\SPRAWOZDANIE7\SPRAWOZDANIE7\X64\DEBUG\SPRAWOZDANIE11.PCH
C:\GRAFIKA\SPR7\GRAFIKA-SPRAWOZDANIE-11\SPRAWOZDANIE7\SPRAWOZDANIE7\X64\DEBUG\VC140.PDB
C:\GRAFIKA\SPR7\GRAFIKA-SPRAWOZDANIE-11\SPRAWOZDANIE7\SPRAWOZDANIE7\X64\DEBUG\VC140.IDB
C:\GRAFIKA\SPR7\GRAFIKA-SPRAWOZDANIE-11\SPRAWOZDANIE7\SPRAWOZDANIE7\X64\DEBUG\STDAFX.OBJ
^C:\GRAFIKA\SPR7\GRAFIKA-SPRAWOZDANIE-11\SPRAWOZDANIE7\SPRAWOZDANIE7\SPRAWOZDANIE11.CPP|C:\GRAFIKA\SPR7\GRAFIKA-SPRAWOZDANIE-11\SPRAWOZDANIE7\SPRAWOZDANIE7\VECTORMATH.CPP
C:\GRAFIKA\SPR7\GRAFIKA-SPRAWOZDANIE-11\SPRAWOZDANIE7\SPRAWOZDANIE7\X64\DEBUG\VC140.PDB
C:\GRAFIKA\SPR7\GRAFIKA-SPRAWOZDANIE-11\SPRAWOZDANIE7\SPRAWOZDANIE7\X64\DEBUG\VC140.IDB
C:\GRAFIKA\SPR7\GRAFIKA-SPRAWOZDANIE-11\SPRAWOZDANIE7\SPRAWOZDANIE7\X64\DEBUG\SPRAWOZDANIE11.OBJ
C:\GRAFIKA\SPR7\GRAFIKA-SPRAWOZDANIE-11\SPRAWOZDANIE7\SPRAWOZDANIE7\X64\DEBUG\VECTORMATH.OBJ
^C:\GRAFIKA\SPR7\GRAFIKA-SPRAWOZDANIE-11\SPRAWOZDANIE7\SPRAWOZDANIE7\SPRAWOZDANIE11.CPP
C:\GRAFIKA\SPR7\GRAFIKA-SPRAWOZDANIE-11\SPRAWOZDANIE7\SPRAWOZDANIE7\X64\DEBUG\VC140.PDB
C:\GRAFIKA\SPR7\GRAFIKA-SPRAWOZDANIE-11\SPRAWOZDANIE7\SPRAWOZDANIE7\X64\DEBUG\VC140.IDB
C:\GRAFIKA\SPR7\GRAFIKA-SPRAWOZDANIE-11\SPRAWOZDANIE7\SPRAWOZDANIE7\X64\DEBUG\SPRAWOZDANIE11.OBJ
^C:\GRAFIKA\SPR7\GRAFIKA-SPRAWOZDANIE-11\SPRAWOZDANIE7\SPRAWOZDANIE7\VECTORMATH.CPP
C:\GRAFIKA\SPR7\GRAFIKA-SPRAWOZDANIE-11\SPRAWOZDANIE7\SPRAWOZDANIE7\X64\DEBUG\VC140.PDB
C:\GRAFIKA\SPR7\GRAFIKA-SPRAWOZDANIE-11\SPRAWOZDANIE7\SPRAWOZDANIE7\X64\DEBUG\VC140.IDB
C:\GRAFIKA\SPR7\GRAFIKA-SPRAWOZDANIE-11\SPRAWOZDANIE7\SPRAWOZDANIE7\X64\DEBUG\VECTORMATH.OBJ
^C:\GRAFIKA\SPR7\GRAFIKA-SPRAWOZDANIE-11\SPRAWOZDANIE11\SPRAWOZDANIE11\STDAFX.CPP
C:\GRAFIKA\SPR7\GRAFIKA-SPRAWOZDANIE-11\SPRAWOZDANIE11\SPRAWOZDANIE11\X64\DEBUG\SPRAWOZDANIE11.PCH
C:\GRAFIKA\SPR7\GRAFIKA-SPRAWOZDANIE-11\SPRAWOZDANIE11\SPRAWOZDANIE11\X64\DEBUG\VC140.PDB
C:\GRAFIKA\SPR7\GRAFIKA-SPRAWOZDANIE-11\SPRAWOZDANIE11\SPRAWOZDANIE11\X64\DEBUG\VC140.IDB
C:\GRAFIKA\SPR7\GRAFIKA-SPRAWOZDANIE-11\SPRAWOZDANIE11\SPRAWOZDANIE11\X64\DEBUG\STDAFX.OBJ
^C:\GRAFIKA\SPR7\GRAFIKA-SPRAWOZDANIE-11\SPRAWOZDANIE11\SPRAWOZDANIE11\SPRAWOZDANIE11.CPP|C:\GRAFIKA\SPR7\GRAFIKA-SPRAWOZDANIE-11\SPRAWOZDANIE11\SPRAWOZDANIE11\VECTORMATH.CPP
C:\GRAFIKA\SPR7\GRAFIKA-SPRAWOZDANIE-11\SPRAWOZDANIE11\SPRAWOZDANIE11\X64\DEBUG\VC140.PDB
C:\GRAFIKA\SPR7\GRAFIKA-SPRAWOZDANIE-11\SPRAWOZDANIE11\SPRAWOZDANIE11\X64\DEBUG\VC140.IDB
C:\GRAFIKA\SPR7\GRAFIKA-SPRAWOZDANIE-11\SPRAWOZDANIE11\SPRAWOZDANIE11\X64\DEBUG\SPRAWOZDANIE11.OBJ
C:\GRAFIKA\SPR7\GRAFIKA-SPRAWOZDANIE-11\SPRAWOZDANIE11\SPRAWOZDANIE11\X64\DEBUG\VECTORMATH.OBJ
^C:\GRAFIKA\SPR7\GRAFIKA-SPRAWOZDANIE-11\SPRAWOZDANIE11\SPRAWOZDANIE11\SPRAWOZDANIE11.CPP
C:\GRAFIKA\SPR7\GRAFIKA-SPRAWOZDANIE-11\SPRAWOZDANIE11\SPRAWOZDANIE11\X64\DEBUG\VC140.PDB
^C:\GRAFIKA\SPR7\GRAFIKA-SPRAWOZDANIE-11\SPRAWOZDANIE11\SPRAWOZDANIE11\VECTORMATH.CPP
C:\GRAFIKA\SPR7\GRAFIKA-SPRAWOZDANIE-11\SPRAWOZDANIE11\SPRAWOZDANIE11\X64\DEBUG\VC140.PDB
