^C:\USERS\BŁAŻEJ\DOCUMENTS\VISUAL STUDIO 2013\PROJECTS\CONSOLEAPPLICATION51\ZAD2\DEBUG\STDAFX.OBJ|C:\USERS\BŁAŻEJ\DOCUMENTS\VISUAL STUDIO 2013\PROJECTS\CONSOLEAPPLICATION51\ZAD2\DEBUG\ZAD2.OBJ
/OUT:"C:\USERS\BŁAŻEJ\DOCUMENTS\VISUAL STUDIO 2013\PROJECTS\CONSOLEAPPLICATION51\DEBUG\ZAD2.EXE" /INCREMENTAL /NOLOGO "C:\Users\Błażej\Documents\Visual Studio 2013\Projects\ConsoleApplication51\packages\nupengl.core.0.1.0.1\build\native\../..//build/native/lib/Win32\glew32.lib" "C:\Users\Błażej\Documents\Visual Studio 2013\Projects\ConsoleApplication51\packages\nupengl.core.0.1.0.1\build\native\../..//build/native/lib/Win32\glfw3dll.lib" "C:\Users\Błażej\Documents\Visual Studio 2013\Projects\ConsoleApplication51\packages\nupengl.core.0.1.0.1\build\native\../..//build/native/lib/Win32\freeglut.lib" kernel32.lib user32.lib gdi32.lib winspool.lib comdlg32.lib advapi32.lib shell32.lib ole32.lib oleaut32.lib uuid.lib odbc32.lib odbccp32.lib /MANIFEST /MANIFESTUAC:"level='asInvoker' uiAccess='false'" /manifest:embed /DEBUG /PDB:"C:\USERS\BŁAŻEJ\DOCUMENTS\VISUAL STUDIO 2013\PROJECTS\CONSOLEAPPLICATION51\DEBUG\ZAD2.PDB" /SUBSYSTEM:CONSOLE /TLBID:1 /DYNAMICBASE /NXCOMPAT /IMPLIB:"C:\USERS\BŁAŻEJ\DOCUMENTS\VISUAL STUDIO 2013\PROJECTS\CONSOLEAPPLICATION51\DEBUG\ZAD2.LIB" /MACHINE:X86 DEBUG\STDAFX.OBJDEBUG\ZAD2.OBJ
^C:\USERS\BŁAŻEJ\DOCUMENTS\VISUAL STUDIO 2013\PROJECTS\SPRAWOZDANIE1\ZAD2\DEBUG\STDAFX.OBJ|C:\USERS\BŁAŻEJ\DOCUMENTS\VISUAL STUDIO 2013\PROJECTS\SPRAWOZDANIE1\ZAD2\DEBUG\ZAD2.OBJ
/OUT:"C:\USERS\BŁAŻEJ\DOCUMENTS\VISUAL STUDIO 2013\PROJECTS\SPRAWOZDANIE1\DEBUG\ZAD2.EXE" /INCREMENTAL /NOLOGO "C:\Users\Błażej\Documents\Visual Studio 2013\Projects\Sprawozdanie1\packages\nupengl.core.0.1.0.1\build\native\../..//build/native/lib/Win32\glew32.lib" "C:\Users\Błażej\Documents\Visual Studio 2013\Projects\Sprawozdanie1\packages\nupengl.core.0.1.0.1\build\native\../..//build/native/lib/Win32\glfw3dll.lib" "C:\Users\Błażej\Documents\Visual Studio 2013\Projects\Sprawozdanie1\packages\nupengl.core.0.1.0.1\build\native\../..//build/native/lib/Win32\freeglut.lib" kernel32.lib user32.lib gdi32.lib winspool.lib comdlg32.lib advapi32.lib shell32.lib ole32.lib oleaut32.lib uuid.lib odbc32.lib odbccp32.lib /MANIFEST /MANIFESTUAC:"level='asInvoker' uiAccess='false'" /manifest:embed /DEBUG /PDB:"C:\USERS\BŁAŻEJ\DOCUMENTS\VISUAL STUDIO 2013\PROJECTS\SPRAWOZDANIE1\DEBUG\ZAD2.PDB" /SUBSYSTEM:CONSOLE /TLBID:1 /DYNAMICBASE /NXCOMPAT /IMPLIB:"C:\USERS\BŁAŻEJ\DOCUMENTS\VISUAL STUDIO 2013\PROJECTS\SPRAWOZDANIE1\DEBUG\ZAD2.LIB" /MACHINE:X86 DEBUG\STDAFX.OBJDEBUG\ZAD2.OBJ
