^C:\GRAFIKA\SPR7\GRAFIKA-SPRAWOZDANIE-8\SPRAWOZDANIE8\SPRAWOZDANIE8\STDAFX.CPP
/c /I"C:\GRAFIKA\SPR7\GRAFIKA-SPRAWOZDANIE-8\SPRAWOZDANIE8\PACKAGES\NUPENGL.CORE.0.1.0.1\BUILD\NATIVE\../..//BUILD/NATIVE/INCLUDE/" /ZI /nologo /W3 /WX- /Od /D _DEBUG /D _CONSOLE /D _UNICODE /D UNICODE /Gm /EHsc /RTC1 /MDd /GS /fp:precise /Zc:wchar_t /Zc:forScope /Zc:inline /Yc"stdafx.h" /Fp"X64\DEBUG\SPRAWOZDANIE8.PCH" /Fo"X64\DEBUG\\" /Fd"X64\DEBUG\VC140.PDB" /Gd /TP C:\GRAFIKA\SPR7\GRAFIKA-SPRAWOZDANIE-8\SPRAWOZDANIE8\SPRAWOZDANIE8\STDAFX.CPP
^C:\GRAFIKA\SPR7\GRAFIKA-SPRAWOZDANIE-8\SPRAWOZDANIE8\SPRAWOZDANIE8\SPRAWOZDANIE8.CPP
/c /I"C:\GRAFIKA\SPR7\GRAFIKA-SPRAWOZDANIE-8\SPRAWOZDANIE8\PACKAGES\NUPENGL.CORE.0.1.0.1\BUILD\NATIVE\../..//BUILD/NATIVE/INCLUDE/" /ZI /nologo /W3 /WX- /Od /D _DEBUG /D _CONSOLE /D _UNICODE /D UNICODE /Gm /EHsc /RTC1 /MDd /GS /fp:precise /Zc:wchar_t /Zc:forScope /Zc:inline /Yu"stdafx.h" /Fp"X64\DEBUG\SPRAWOZDANIE8.PCH" /Fo"X64\DEBUG\\" /Fd"X64\DEBUG\VC140.PDB" /Gd /TP C:\GRAFIKA\SPR7\GRAFIKA-SPRAWOZDANIE-8\SPRAWOZDANIE8\SPRAWOZDANIE8\SPRAWOZDANIE8.CPP
