^C:\GRAFIKA\SPR7\GRAFIKA-SPRAWOZDANIE-8\SPRAWOZDANIE8\SPRAWOZDANIE8\X64\DEBUG\SPRAWOZDANIE8.OBJ|C:\GRAFIKA\SPR7\GRAFIKA-SPRAWOZDANIE-8\SPRAWOZDANIE8\SPRAWOZDANIE8\X64\DEBUG\STDAFX.OBJ
C:\WINDOWS\GLOBALIZATION\SORTING\SORTDEFAULT.NLS
C:\GRAFIKA\SPR7\GRAFIKA-SPRAWOZDANIE-8\SPRAWOZDANIE8\PACKAGES\NUPENGL.CORE.0.1.0.1\BUILD\NATIVE\LIB\X64\GLEW32.LIB
C:\GRAFIKA\SPR7\GRAFIKA-SPRAWOZDANIE-8\SPRAWOZDANIE8\PACKAGES\NUPENGL.CORE.0.1.0.1\BUILD\NATIVE\LIB\X64\GLFW3DLL.LIB
C:\GRAFIKA\SPR7\GRAFIKA-SPRAWOZDANIE-8\SPRAWOZDANIE8\PACKAGES\NUPENGL.CORE.0.1.0.1\BUILD\NATIVE\LIB\X64\FREEGLUT.LIB
C:\PROGRAM FILES (X86)\WINDOWS KITS\8.1\LIB\WINV6.3\UM\X64\KERNEL32.LIB
C:\PROGRAM FILES (X86)\WINDOWS KITS\8.1\LIB\WINV6.3\UM\X64\USER32.LIB
C:\PROGRAM FILES (X86)\WINDOWS KITS\8.1\LIB\WINV6.3\UM\X64\GDI32.LIB
C:\PROGRAM FILES (X86)\WINDOWS KITS\8.1\LIB\WINV6.3\UM\X64\WINSPOOL.LIB
C:\PROGRAM FILES (X86)\WINDOWS KITS\8.1\LIB\WINV6.3\UM\X64\COMDLG32.LIB
C:\PROGRAM FILES (X86)\WINDOWS KITS\8.1\LIB\WINV6.3\UM\X64\ADVAPI32.LIB
C:\PROGRAM FILES (X86)\WINDOWS KITS\8.1\LIB\WINV6.3\UM\X64\SHELL32.LIB
C:\PROGRAM FILES (X86)\WINDOWS KITS\8.1\LIB\WINV6.3\UM\X64\OLE32.LIB
C:\PROGRAM FILES (X86)\WINDOWS KITS\8.1\LIB\WINV6.3\UM\X64\OLEAUT32.LIB
C:\PROGRAM FILES (X86)\WINDOWS KITS\8.1\LIB\WINV6.3\UM\X64\UUID.LIB
C:\PROGRAM FILES (X86)\WINDOWS KITS\8.1\LIB\WINV6.3\UM\X64\ODBC32.LIB
C:\PROGRAM FILES (X86)\WINDOWS KITS\8.1\LIB\WINV6.3\UM\X64\ODBCCP32.LIB
C:\GRAFIKA\SPR7\GRAFIKA-SPRAWOZDANIE-8\SPRAWOZDANIE8\SPRAWOZDANIE8\X64\DEBUG\SPRAWOZDANIE8.OBJ
C:\GRAFIKA\SPR7\GRAFIKA-SPRAWOZDANIE-8\SPRAWOZDANIE8\SPRAWOZDANIE8\X64\DEBUG\STDAFX.OBJ
C:\WINDOWS\SYSTEM32\TZRES.DLL
C:\PROGRAM FILES (X86)\WINDOWS KITS\8.1\LIB\WINV6.3\UM\X64\GLU32.LIB
C:\PROGRAM FILES (X86)\WINDOWS KITS\8.1\LIB\WINV6.3\UM\X64\OPENGL32.LIB
C:\PROGRAM FILES (X86)\WINDOWS KITS\8.1\LIB\WINV6.3\UM\X64\WINMM.LIB
D:\PROGRAMY\VISUAL STUDIO 2015\VC\LIB\AMD64\MSVCRTD.LIB
D:\PROGRAMY\VISUAL STUDIO 2015\VC\LIB\AMD64\OLDNAMES.LIB
D:\PROGRAMY\VISUAL STUDIO 2015\VC\LIB\AMD64\VCRUNTIMED.LIB
C:\PROGRAM FILES (X86)\WINDOWS KITS\10\LIB\10.0.10240.0\UCRT\X64\UCRTD.LIB
