^C:\USERS\SEBASTIAN\DOCUMENTS\GRAFIKA-SPRAWOZDANIE-8\SPRAWOZDANIE8\SPRAWOZDANIE8\DEBUG\SPRAWOZDANIE8.OBJ|C:\USERS\SEBASTIAN\DOCUMENTS\GRAFIKA-SPRAWOZDANIE-8\SPRAWOZDANIE8\SPRAWOZDANIE8\DEBUG\STDAFX.OBJ
C:\USERS\SEBASTIAN\DOCUMENTS\GRAFIKA-SPRAWOZDANIE-8\SPRAWOZDANIE8\DEBUG\SPRAWOZDANIE8.ILK
C:\USERS\SEBASTIAN\DOCUMENTS\GRAFIKA-SPRAWOZDANIE-8\SPRAWOZDANIE8\DEBUG\SPRAWOZDANIE8.EXE
C:\USERS\SEBASTIAN\DOCUMENTS\GRAFIKA-SPRAWOZDANIE-8\SPRAWOZDANIE8\DEBUG\SPRAWOZDANIE8.PDB
