^C:\GRAFIKA\SPR7\GRAFIKA-SPRAWOZDANIE-9\ZAJECIE_9-MASTER\ZAJECIE_9\STDAFX.CPP
C:\GRAFIKA\SPR7\GRAFIKA-SPRAWOZDANIE-9\ZAJECIE_9-MASTER\ZAJECIE_9\DEBUG\ZAJECIE_9.PCH
C:\GRAFIKA\SPR7\GRAFIKA-SPRAWOZDANIE-9\ZAJECIE_9-MASTER\ZAJECIE_9\DEBUG\VC140.PDB
C:\GRAFIKA\SPR7\GRAFIKA-SPRAWOZDANIE-9\ZAJECIE_9-MASTER\ZAJECIE_9\DEBUG\VC140.IDB
C:\GRAFIKA\SPR7\GRAFIKA-SPRAWOZDANIE-9\ZAJECIE_9-MASTER\ZAJECIE_9\DEBUG\STDAFX.OBJ
^C:\GRAFIKA\SPR7\GRAFIKA-SPRAWOZDANIE-9\ZAJECIE_9-MASTER\ZAJECIE_9\ZAJECIE_9.CPP
C:\GRAFIKA\SPR7\GRAFIKA-SPRAWOZDANIE-9\ZAJECIE_9-MASTER\ZAJECIE_9\DEBUG\VC140.PDB
C:\GRAFIKA\SPR7\GRAFIKA-SPRAWOZDANIE-9\ZAJECIE_9-MASTER\ZAJECIE_9\DEBUG\VC140.IDB
C:\GRAFIKA\SPR7\GRAFIKA-SPRAWOZDANIE-9\ZAJECIE_9-MASTER\ZAJECIE_9\DEBUG\ZAJECIE_9.OBJ
