^C:\USERS\BŁAŻEJ\DOCUMENTS\VISUAL STUDIO 2013\PROJECTS\SPRAWOZDANIE 2\PROGRAM3\STDAFX.CPP
C:\USERS\BłAżEJ\DOCUMENTS\VISUAL STUDIO 2013\PROJECTS\SPRAWOZDANIE 2\PROGRAM3\DEBUG\PROGRAM3.PCH
C:\USERS\BłAżEJ\DOCUMENTS\VISUAL STUDIO 2013\PROJECTS\SPRAWOZDANIE 2\PROGRAM3\DEBUG\VC120.PDB
C:\USERS\BłAżEJ\DOCUMENTS\VISUAL STUDIO 2013\PROJECTS\SPRAWOZDANIE 2\PROGRAM3\DEBUG\VC120.IDB
C:\USERS\BłAżEJ\DOCUMENTS\VISUAL STUDIO 2013\PROJECTS\SPRAWOZDANIE 2\PROGRAM3\DEBUG\STDAFX.OBJ
^C:\USERS\BŁAŻEJ\DOCUMENTS\VISUAL STUDIO 2013\PROJECTS\SPRAWOZDANIE 2\PROGRAM3\PROGRAM3.CPP
C:\USERS\BłAżEJ\DOCUMENTS\VISUAL STUDIO 2013\PROJECTS\SPRAWOZDANIE 2\PROGRAM3\DEBUG\VC120.PDB
C:\USERS\BłAżEJ\DOCUMENTS\VISUAL STUDIO 2013\PROJECTS\SPRAWOZDANIE 2\PROGRAM3\DEBUG\VC120.IDB
C:\USERS\BłAżEJ\DOCUMENTS\VISUAL STUDIO 2013\PROJECTS\SPRAWOZDANIE 2\PROGRAM3\DEBUG\PROGRAM3.OBJ
^C:\USERS\BŁAŻEJ\DOCUMENTS\VISUAL STUDIO 2013\PROJECTS\SPRAWOZDANIE 2\PROGRAM3\PROGRAM3.CPP|C:\USERS\BŁAŻEJ\DOCUMENTS\VISUAL STUDIO 2013\PROJECTS\SPRAWOZDANIE 2\PROGRAM3\VECTORMATH.CPP
C:\USERS\BłAżEJ\DOCUMENTS\VISUAL STUDIO 2013\PROJECTS\SPRAWOZDANIE 2\PROGRAM3\DEBUG\VC120.PDB
C:\USERS\BłAżEJ\DOCUMENTS\VISUAL STUDIO 2013\PROJECTS\SPRAWOZDANIE 2\PROGRAM3\DEBUG\VC120.IDB
^C:\USERS\BŁAŻEJ\DOCUMENTS\VISUAL STUDIO 2013\PROJECTS\SPRAWOZDANIE 2\PROGRAM3\VECTORMATH.CPP
C:\USERS\BŁAŻEJ\DOCUMENTS\VISUAL STUDIO 2013\PROJECTS\SPRAWOZDANIE 2\PROGRAM3\DEBUG\VC120.PDB
^C:\USERS\BŁAŻEJ\DOCUMENTS\VISUAL STUDIO 2013\PROJECTS\SPRAWOZDANIE2\PROGRAM3\STDAFX.CPP
C:\USERS\BłAżEJ\DOCUMENTS\VISUAL STUDIO 2013\PROJECTS\SPRAWOZDANIE2\PROGRAM3\DEBUG\PROGRAM3.PCH
C:\USERS\BłAżEJ\DOCUMENTS\VISUAL STUDIO 2013\PROJECTS\SPRAWOZDANIE2\PROGRAM3\DEBUG\VC120.PDB
C:\USERS\BłAżEJ\DOCUMENTS\VISUAL STUDIO 2013\PROJECTS\SPRAWOZDANIE2\PROGRAM3\DEBUG\VC120.IDB
C:\USERS\BłAżEJ\DOCUMENTS\VISUAL STUDIO 2013\PROJECTS\SPRAWOZDANIE2\PROGRAM3\DEBUG\STDAFX.OBJ
^C:\USERS\BŁAŻEJ\DOCUMENTS\VISUAL STUDIO 2013\PROJECTS\SPRAWOZDANIE2\PROGRAM3\PROGRAM3.CPP
C:\USERS\BłAżEJ\DOCUMENTS\VISUAL STUDIO 2013\PROJECTS\SPRAWOZDANIE2\PROGRAM3\DEBUG\VC120.PDB
C:\USERS\BłAżEJ\DOCUMENTS\VISUAL STUDIO 2013\PROJECTS\SPRAWOZDANIE2\PROGRAM3\DEBUG\VC120.IDB
C:\USERS\BłAżEJ\DOCUMENTS\VISUAL STUDIO 2013\PROJECTS\SPRAWOZDANIE2\PROGRAM3\DEBUG\PROGRAM3.OBJ
