^C:\USERS\BŁAŻEJ\DOCUMENTS\VISUAL STUDIO 2013\PROJECTS\SPRAWOZDANIE 2\PROGRAM3\DEBUG\PROGRAM3.OBJ|C:\USERS\BŁAŻEJ\DOCUMENTS\VISUAL STUDIO 2013\PROJECTS\SPRAWOZDANIE 2\PROGRAM3\DEBUG\STDAFX.OBJ
C:\USERS\BłAżEJ\DOCUMENTS\VISUAL STUDIO 2013\PROJECTS\SPRAWOZDANIE 2\PACKAGES\NUPENGL.CORE.0.1.0.1\BUILD\NATIVE\LIB\WIN32\GLEW32.LIB
C:\USERS\BłAżEJ\DOCUMENTS\VISUAL STUDIO 2013\PROJECTS\SPRAWOZDANIE 2\PACKAGES\NUPENGL.CORE.0.1.0.1\BUILD\NATIVE\LIB\WIN32\GLFW3DLL.LIB
C:\USERS\BłAżEJ\DOCUMENTS\VISUAL STUDIO 2013\PROJECTS\SPRAWOZDANIE 2\PACKAGES\NUPENGL.CORE.0.1.0.1\BUILD\NATIVE\LIB\WIN32\FREEGLUT.LIB
C:\PROGRAM FILES (X86)\WINDOWS KITS\8.1\LIB\WINV6.3\UM\X86\KERNEL32.LIB
C:\PROGRAM FILES (X86)\WINDOWS KITS\8.1\LIB\WINV6.3\UM\X86\USER32.LIB
C:\PROGRAM FILES (X86)\WINDOWS KITS\8.1\LIB\WINV6.3\UM\X86\GDI32.LIB
C:\PROGRAM FILES (X86)\WINDOWS KITS\8.1\LIB\WINV6.3\UM\X86\WINSPOOL.LIB
C:\PROGRAM FILES (X86)\WINDOWS KITS\8.1\LIB\WINV6.3\UM\X86\COMDLG32.LIB
C:\PROGRAM FILES (X86)\WINDOWS KITS\8.1\LIB\WINV6.3\UM\X86\ADVAPI32.LIB
C:\PROGRAM FILES (X86)\WINDOWS KITS\8.1\LIB\WINV6.3\UM\X86\SHELL32.LIB
C:\PROGRAM FILES (X86)\WINDOWS KITS\8.1\LIB\WINV6.3\UM\X86\OLE32.LIB
C:\PROGRAM FILES (X86)\WINDOWS KITS\8.1\LIB\WINV6.3\UM\X86\OLEAUT32.LIB
C:\PROGRAM FILES (X86)\WINDOWS KITS\8.1\LIB\WINV6.3\UM\X86\UUID.LIB
C:\PROGRAM FILES (X86)\WINDOWS KITS\8.1\LIB\WINV6.3\UM\X86\ODBC32.LIB
C:\PROGRAM FILES (X86)\WINDOWS KITS\8.1\LIB\WINV6.3\UM\X86\ODBCCP32.LIB
C:\USERS\BłAżEJ\DOCUMENTS\VISUAL STUDIO 2013\PROJECTS\SPRAWOZDANIE 2\PROGRAM3\DEBUG\PROGRAM3.OBJ
C:\USERS\BłAżEJ\DOCUMENTS\VISUAL STUDIO 2013\PROJECTS\SPRAWOZDANIE 2\PROGRAM3\DEBUG\STDAFX.OBJ
C:\WINDOWS\SYSTEM32\TZRES.DLL
C:\WINDOWS\GLOBALIZATION\SORTING\SORTDEFAULT.NLS
C:\PROGRAM FILES (X86)\WINDOWS KITS\8.1\LIB\WINV6.3\UM\X86\GLU32.LIB
C:\PROGRAM FILES (X86)\WINDOWS KITS\8.1\LIB\WINV6.3\UM\X86\OPENGL32.LIB
C:\PROGRAM FILES (X86)\WINDOWS KITS\8.1\LIB\WINV6.3\UM\X86\WINMM.LIB
C:\PROGRAM FILES (X86)\MICROSOFT VISUAL STUDIO 12.0\VC\LIB\MSVCRTD.LIB
C:\PROGRAM FILES (X86)\MICROSOFT VISUAL STUDIO 12.0\VC\LIB\OLDNAMES.LIB
^C:\USERS\BŁAŻEJ\DOCUMENTS\VISUAL STUDIO 2013\PROJECTS\SPRAWOZDANIE2\PROGRAM3\DEBUG\PROGRAM3.OBJ|C:\USERS\BŁAŻEJ\DOCUMENTS\VISUAL STUDIO 2013\PROJECTS\SPRAWOZDANIE2\PROGRAM3\DEBUG\STDAFX.OBJ
C:\USERS\BłAżEJ\DOCUMENTS\VISUAL STUDIO 2013\PROJECTS\SPRAWOZDANIE2\PACKAGES\NUPENGL.CORE.0.1.0.1\BUILD\NATIVE\LIB\WIN32\GLEW32.LIB
C:\USERS\BłAżEJ\DOCUMENTS\VISUAL STUDIO 2013\PROJECTS\SPRAWOZDANIE2\PACKAGES\NUPENGL.CORE.0.1.0.1\BUILD\NATIVE\LIB\WIN32\GLFW3DLL.LIB
C:\USERS\BłAżEJ\DOCUMENTS\VISUAL STUDIO 2013\PROJECTS\SPRAWOZDANIE2\PACKAGES\NUPENGL.CORE.0.1.0.1\BUILD\NATIVE\LIB\WIN32\FREEGLUT.LIB
C:\PROGRAM FILES (X86)\WINDOWS KITS\8.1\LIB\WINV6.3\UM\X86\KERNEL32.LIB
C:\PROGRAM FILES (X86)\WINDOWS KITS\8.1\LIB\WINV6.3\UM\X86\USER32.LIB
C:\PROGRAM FILES (X86)\WINDOWS KITS\8.1\LIB\WINV6.3\UM\X86\GDI32.LIB
C:\PROGRAM FILES (X86)\WINDOWS KITS\8.1\LIB\WINV6.3\UM\X86\WINSPOOL.LIB
C:\PROGRAM FILES (X86)\WINDOWS KITS\8.1\LIB\WINV6.3\UM\X86\COMDLG32.LIB
C:\PROGRAM FILES (X86)\WINDOWS KITS\8.1\LIB\WINV6.3\UM\X86\ADVAPI32.LIB
C:\PROGRAM FILES (X86)\WINDOWS KITS\8.1\LIB\WINV6.3\UM\X86\SHELL32.LIB
C:\PROGRAM FILES (X86)\WINDOWS KITS\8.1\LIB\WINV6.3\UM\X86\OLE32.LIB
C:\PROGRAM FILES (X86)\WINDOWS KITS\8.1\LIB\WINV6.3\UM\X86\OLEAUT32.LIB
C:\PROGRAM FILES (X86)\WINDOWS KITS\8.1\LIB\WINV6.3\UM\X86\UUID.LIB
C:\PROGRAM FILES (X86)\WINDOWS KITS\8.1\LIB\WINV6.3\UM\X86\ODBC32.LIB
C:\PROGRAM FILES (X86)\WINDOWS KITS\8.1\LIB\WINV6.3\UM\X86\ODBCCP32.LIB
C:\USERS\BłAżEJ\DOCUMENTS\VISUAL STUDIO 2013\PROJECTS\SPRAWOZDANIE2\PROGRAM3\DEBUG\PROGRAM3.OBJ
C:\USERS\BłAżEJ\DOCUMENTS\VISUAL STUDIO 2013\PROJECTS\SPRAWOZDANIE2\PROGRAM3\DEBUG\STDAFX.OBJ
C:\WINDOWS\SYSTEM32\TZRES.DLL
C:\WINDOWS\GLOBALIZATION\SORTING\SORTDEFAULT.NLS
C:\PROGRAM FILES (X86)\WINDOWS KITS\8.1\LIB\WINV6.3\UM\X86\GLU32.LIB
C:\PROGRAM FILES (X86)\WINDOWS KITS\8.1\LIB\WINV6.3\UM\X86\OPENGL32.LIB
C:\PROGRAM FILES (X86)\WINDOWS KITS\8.1\LIB\WINV6.3\UM\X86\WINMM.LIB
C:\PROGRAM FILES (X86)\MICROSOFT VISUAL STUDIO 12.0\VC\LIB\MSVCRTD.LIB
C:\PROGRAM FILES (X86)\MICROSOFT VISUAL STUDIO 12.0\VC\LIB\OLDNAMES.LIB
C:\PROGRAM FILES (X86)\WINDOWS KITS\8.1\BIN\X86\RC.EXE
C:\PROGRAM FILES (X86)\MICROSOFT VISUAL STUDIO 12.0\VC\BIN\CVTRES.EXE
