^C:\GRAFIKA\SPR7\GRAFIKA-SPRAWOZDANIE-7\SPRAWOZDANIE7\SPRAWOZDANIE7\X64\DEBUG\SPRAWOZDANIE7.OBJ|C:\GRAFIKA\SPR7\GRAFIKA-SPRAWOZDANIE-7\SPRAWOZDANIE7\SPRAWOZDANIE7\X64\DEBUG\STDAFX.OBJ|C:\GRAFIKA\SPR7\GRAFIKA-SPRAWOZDANIE-7\SPRAWOZDANIE7\SPRAWOZDANIE7\X64\DEBUG\VECTORMATH.OBJ
C:\GRAFIKA\SPR7\GRAFIKA-SPRAWOZDANIE-7\SPRAWOZDANIE7\X64\DEBUG\SPRAWOZDANIE7.ILK
C:\GRAFIKA\SPR7\GRAFIKA-SPRAWOZDANIE-7\SPRAWOZDANIE7\X64\DEBUG\SPRAWOZDANIE7.EXE
C:\GRAFIKA\SPR7\GRAFIKA-SPRAWOZDANIE-7\SPRAWOZDANIE7\X64\DEBUG\SPRAWOZDANIE7.PDB
^C:\GRAFIKA-KOMPUTEROWA\SPRAWOZDANIE7\SPRAWOZDANIE7\X64\DEBUG\SPRAWOZDANIE7.OBJ|C:\GRAFIKA-KOMPUTEROWA\SPRAWOZDANIE7\SPRAWOZDANIE7\X64\DEBUG\STDAFX.OBJ|C:\GRAFIKA-KOMPUTEROWA\SPRAWOZDANIE7\SPRAWOZDANIE7\X64\DEBUG\VECTORMATH.OBJ
C:\GRAFIKA-KOMPUTEROWA\SPRAWOZDANIE7\X64\DEBUG\SPRAWOZDANIE7.ILK
C:\GRAFIKA-KOMPUTEROWA\SPRAWOZDANIE7\X64\DEBUG\SPRAWOZDANIE7.EXE
C:\GRAFIKA-KOMPUTEROWA\SPRAWOZDANIE7\X64\DEBUG\SPRAWOZDANIE7.PDB
